COE328 Labs/Lab 4/simulation/qsim/lab4.msim.vcd
$comment
	File created using the following command:
		vcd file lab4.msim.vcd -direction
$end
$date
	Mon Nov 01 16:16:36 2021
$end
$version
	ModelSim Version 10.1d
$end
$timescale
	1ps
$end
$scope module decodModified_vlg_vec_tst $end
$var reg 1 ! En $end
$var reg 2 " W [1:0] $end
$var reg 1 # W2 $end
$var wire 1 $ Y [0] $end
$var wire 1 % Y [1] $end
$var wire 1 & Y [2] $end
$var wire 1 ' Y [3] $end
$var wire 1 ( Y [4] $end
$var wire 1 ) Y [5] $end
$var wire 1 * Y [6] $end
$var wire 1 + Y [7] $end
$var wire 1 , sampler $end
$scope module i1 $end
$var wire 1 - gnd $end
$var wire 1 . vcc $end
$var wire 1 / unknown $end
$var tri1 1 0 devclrn $end
$var tri1 1 1 devpor $end
$var tri1 1 2 devoe $end
$var wire 1 3 En~combout $end
$var wire 1 4 W2~combout $end
$var wire 1 5 inst|Mux0~0_combout $end
$var wire 1 6 inst|Mux1~0_combout $end
$var wire 1 7 inst|Mux2~0_combout $end
$var wire 1 8 inst|Mux3~0_combout $end
$var wire 1 9 inst1|Mux3~0_combout $end
$var wire 1 : inst1|Mux2~0_combout $end
$var wire 1 ; inst1|Mux1~0_combout $end
$var wire 1 < inst1|Mux0~0_combout $end
$var wire 1 = W~combout [1] $end
$var wire 1 > W~combout [0] $end
$upscope $end
$upscope $end
$enddefinitions $end
#0
$dumpvars
0!
b0 "
0#
0+
0*
0)
0(
0'
0&
0%
0$
x,
0-
1.
x/
10
11
12
03
04
05
06
07
08
09
0:
0;
0<
0>
0=
$end
#10000
1!
13
0,
15
1$
#20000
b1 "
0!
1>
03
1,
05
0$
#30000
1!
13
0,
16
1%
#40000
b11 "
1#
b10 "
0!
0>
1=
14
03
1,
06
0%
#50000
1!
13
0,
1:
1)
#60000
b11 "
0!
1>
03
1,
0:
0)
#70000
1!
13
0,
19
1(
#80000
b1 "
0#
b0 "
0!
0>
0=
04
03
1,
09
0(
#90000
1!
13
0,
15
1$
#100000
b1 "
0!
1>
03
1,
05
0$
#110000
1!
13
0,
16
1%
#120000
b11 "
1#
b10 "
0!
0>
1=
14
03
1,
06
0%
#130000
1!
13
0,
1:
1)
#140000
b11 "
0!
1>
03
1,
0:
0)
#150000
1!
13
0,
19
1(
#160000
b1 "
0#
b0 "
0!
0>
0=
04
03
1,
09
0(
#170000
1!
13
0,
15
1$
#180000
b1 "
0!
1>
03
1,
05
0$
#190000
1!
13
0,
16
1%
#200000
b11 "
1#
b10 "
0!
0>
1=
14
03
1,
06
0%
#210000
1!
13
0,
1:
1)
#220000
b11 "
0!
1>
03
1,
0:
0)
#230000
1!
13
0,
19
1(
#240000
b1 "
0#
b0 "
0!
0>
0=
04
03
1,
09
0(
#250000
1!
13
0,
15
1$
#260000
b1 "
0!
1>
03
1,
05
0$
#270000
1!
13
0,
16
1%
#280000
b11 "
1#
b10 "
0!
0>
1=
14
03
1,
06
0%
#290000
1!
13
0,
1:
1)
#300000
b11 "
0!
1>
03
1,
0:
0)
#310000
1!
13
0,
19
1(
#320000
b1 "
0#
b0 "
0!
0>
0=
04
03
1,
09
0(
#330000
1!
13
0,
15
1$
#340000
b1 "
0!
1>
03
1,
05
0$
#350000
1!
13
0,
16
1%
#360000
b11 "
1#
b10 "
0!
0>
1=
14
03
1,
06
0%
#370000
1!
13
0,
1:
1)
#380000
b11 "
0!
1>
03
1,
0:
0)
#390000
1!
13
0,
19
1(
#400000
b1 "
0#
b0 "
0!
0>
0=
04
03
1,
09
0(
#410000
1!
13
0,
15
1$
#420000
b1 "
0!
1>
03
1,
05
0$
#430000
1!
13
0,
16
1%
#440000
b11 "
1#
b10 "
0!
0>
1=
14
03
1,
06
0%
#450000
1!
13
0,
1:
1)
#460000
b11 "
0!
1>
03
1,
0:
0)
#470000
1!
13
0,
19
1(
#480000
b1 "
0#
b0 "
0!
0>
0=
04
03
1,
09
0(
#490000
1!
13
0,
15
1$
#500000
b1 "
0!
1>
03
1,
05
0$
#510000
1!
13
0,
16
1%
#520000
b11 "
1#
b10 "
0!
0>
1=
14
03
1,
06
0%
#530000
1!
13
0,
1:
1)
#540000
b11 "
0!
1>
03
1,
0:
0)
#550000
1!
13
0,
19
1(
#560000
b1 "
0#
b0 "
0!
0>
0=
04
03
1,
09
0(
#570000
1!
13
0,
15
1$
#580000
b1 "
0!
1>
03
1,
05
0$
#590000
1!
13
0,
16
1%
#600000
b11 "
1#
b10 "
0!
0>
1=
14
03
1,
06
0%
#610000
1!
13
0,
1:
1)
#620000
b11 "
0!
1>
03
1,
0:
0)
#630000
1!
13
0,
19
1(
#640000
b1 "
0#
b0 "
0!
0>
0=
04
03
1,
09
0(
#650000
1!
13
0,
15
1$
#660000
b1 "
0!
1>
03
1,
05
0$
#670000
1!
13
0,
16
1%
#680000
b11 "
1#
b10 "
0!
0>
1=
14
03
1,
06
0%
#690000
1!
13
0,
1:
1)
#700000
b11 "
0!
1>
03
1,
0:
0)
#710000
1!
13
0,
19
1(
#720000
b1 "
0#
b0 "
0!
0>
0=
04
03
1,
09
0(
#730000
1!
13
0,
15
1$
#740000
b1 "
0!
1>
03
1,
05
0$
#750000
1!
13
0,
16
1%
#760000
b11 "
1#
b10 "
0!
0>
1=
14
03
1,
06
0%
#770000
1!
13
0,
1:
1)
#780000
b11 "
0!
1>
03
1,
0:
0)
#790000
1!
13
0,
19
1(
#800000
b1 "
0#
b0 "
0!
0>
0=
04
03
1,
09
0(
#810000
1!
13
0,
15
1$
#820000
b1 "
0!
1>
03
1,
05
0$
#830000
1!
13
0,
16
1%
#840000
b11 "
1#
b10 "
0!
0>
1=
14
03
1,
06
0%
#850000
1!
13
0,
1:
1)
#860000
b11 "
0!
1>
03
1,
0:
0)
#870000
1!
13
0,
19
1(
#880000
b1 "
0#
b0 "
0!
0>
0=
04
03
1,
09
0(
#890000
1!
13
0,
15
1$
#900000
b1 "
0!
1>
03
1,
05
0$
#910000
1!
13
0,
16
1%
#920000
b11 "
1#
b10 "
0!
0>
1=
14
03
1,
06
0%
#930000
1!
13
0,
1:
1)
#940000
b11 "
0!
1>
03
1,
0:
0)
#950000
1!
13
0,
19
1(
#960000
b1 "
0#
b0 "
0!
0>
0=
04
03
1,
09
0(
#970000
1!
13
0,
15
1$
#980000
b1 "
0!
1>
03
1,
05
0$
#990000
1!
13
0,
16
1%
