COE328 Labs/Lab final 4 5 6/lab 4p2/simulation/qsim/lab4o2.msim.vcd
$comment
	File created using the following command:
		vcd file lab4o2.msim.vcd -direction
$end
$date
	Mon Nov 22 13:09:29 2021
$end
$version
	ModelSim Version 10.1d
$end
$timescale
	1ps
$end
$scope module Jcounter_vlg_vec_tst $end
$var reg 1 ! Clkn $end
$var reg 1 " Clrn $end
$var reg 1 # E $end
$var wire 1 $ Q [0] $end
$var wire 1 % Q [1] $end
$var wire 1 & Q [2] $end
$var wire 1 ' STUDENT_ID [3] $end
$var wire 1 ( STUDENT_ID [2] $end
$var wire 1 ) STUDENT_ID [1] $end
$var wire 1 * STUDENT_ID [0] $end
$var wire 1 + sampler $end
$scope module i1 $end
$var wire 1 , gnd $end
$var wire 1 - vcc $end
$var wire 1 . unknown $end
$var tri1 1 / devclrn $end
$var tri1 1 0 devpor $end
$var tri1 1 1 devoe $end
$var wire 1 2 Clkn~combout $end
$var wire 1 3 Clkn~clkctrl_outclk $end
$var wire 1 4 Qreg[1]~feeder_combout $end
$var wire 1 5 Clrn~combout $end
$var wire 1 6 Clrn~clkctrl_outclk $end
$var wire 1 7 E~combout $end
$var wire 1 8 Qreg[2]~feeder_combout $end
$var wire 1 9 Qreg[0]~0_combout $end
$var wire 1 : Mux3~0_combout $end
$var wire 1 ; Mux2~0_combout $end
$var wire 1 < Mux1~0_combout $end
$var wire 1 = Mux0~0_combout $end
$var wire 1 > Qreg [0] $end
$var wire 1 ? Qreg [1] $end
$var wire 1 @ Qreg [2] $end
$upscope $end
$upscope $end
$enddefinitions $end
#0
$dumpvars
0!
1"
1#
0&
0%
0$
0*
0)
0(
0'
x+
0,
1-
x.
1/
10
11
02
03
04
15
16
17
08
19
0:
0;
0<
0=
0@
0?
0>
$end
#40000
1!
12
13
0+
#80000
0!
02
03
1+
1>
1:
14
1$
1*
#120000
1!
12
13
0+
#160000
0!
02
03
1+
1?
18
1%
#200000
1!
12
13
0+
#240000
0!
02
03
1+
1@
1=
0:
09
1&
1'
0*
#280000
1!
12
13
0+
#320000
0!
02
03
1+
0>
0=
1<
1:
04
0$
0'
1(
1*
#360000
1!
12
13
0+
#400000
0!
02
03
1+
0?
0<
1;
0:
08
0%
0(
1)
0*
#440000
1!
12
13
0+
#480000
0!
02
03
1+
0@
0;
19
0&
0)
#520000
1!
12
13
0+
#560000
0!
02
03
1+
1>
1:
14
1$
1*
#600000
1!
12
13
0+
#640000
0!
02
03
1+
1?
18
1%
#680000
1!
12
13
0+
#720000
0!
02
03
1+
1@
1=
0:
09
1&
1'
0*
#760000
1!
12
13
0+
#800000
0!
02
03
1+
0>
0=
1<
1:
04
0$
0'
1(
1*
#840000
1!
12
13
0+
#880000
0!
02
03
1+
0?
0<
1;
0:
08
0%
0(
1)
0*
#920000
1!
12
13
0+
#960000
0!
02
03
1+
0@
0;
19
0&
0)
